<svg width="8" height="15" viewBox="0 0 8 15" fill="none" xmlns="http://www.w3.org/2000/svg">
<path d="M5.95495 2.4076H7.27868V0.102104C7.05031 0.0706875 6.26489 0 5.35018 0C3.44162 0 2.1342 1.20048 2.1342 3.4069V5.4375H0.0280762V8.01488H2.1342V14.5H4.71641V8.01548H6.73735L7.05816 5.4381H4.71581V3.66246C4.71641 2.91752 4.91699 2.4076 5.95495 2.4076Z" fill="#21669F"/>
</svg>
